…
## Motivo por el cual no usa la alternativa

    ## `summarise()` has grouped output by 'ciudad_0', 'Motive', 'Modo_Alternativo'. You can override using the `.groups` argument.

    ## # A tibble: 238 x 6
    ##    ciudad_0 Modo_Alternativo Motive      Low    Medium High  
    ##    <fct>    <fct>            <fct>       <chr>  <chr>  <chr> 
    ##  1 Bogota   Bus/BRT          Costo       19.28% 17.56% 15.78%
    ##  2 Bogota   Metro            Costo       21.07% 18.79% 15.96%
    ##  3 Bogota   Other PT option  Costo       31.32% 28.29% 22.2% 
    ##  4 Bogota   Shared Bikes     Costo       21.02% 14.49% 9.14% 
    ##  5 Bogota   Bus/BRT          Tiempo      21.07% 26.73% 25%   
    ##  6 Bogota   Metro            Tiempo      21.38% 19.82% 20.46%
    ##  7 Bogota   Other PT option  Tiempo      14.96% 17.3%  21.81%
    ##  8 Bogota   Shared Bikes     Tiempo      19.58% 22.14% 17.29%
    ##  9 Bogota   Bus/BRT          Incomodidad 18.15% 22.87% 22.19%
    ## 10 Bogota   Metro            Incomodidad 23.88% 23.64% 26.31%
    ## # ... with 228 more rows
…
